[
null,
{"id":1,"battlerName":"Protagonist_kämpfend_1","characterIndex":0,"characterName":"Protagonist_laufend_1","classId":1,"equips":[5,0,0,3,0],"faceIndex":0,"faceName":"Protagonist","traits":[],"initialLevel":1,"maxLevel":99,"name":"Harold","nickname":"","note":"<title:Bauer>","profile":""},
{"id":2,"battlerName":"","characterIndex":0,"characterName":"","classId":1,"equips":[0,0,0,0,0],"faceIndex":0,"faceName":"","traits":[],"initialLevel":1,"maxLevel":99,"name":"","nickname":"","note":"","profile":""},
{"id":3,"battlerName":"","characterIndex":0,"characterName":"","classId":1,"equips":[0,0,0,0,0],"faceIndex":0,"faceName":"","traits":[],"initialLevel":1,"maxLevel":99,"name":"","nickname":"","note":"","profile":""},
{"id":4,"battlerName":"","characterIndex":0,"characterName":"","classId":1,"equips":[0,0,0,0,0],"faceIndex":0,"faceName":"","traits":[],"initialLevel":1,"maxLevel":99,"name":"","nickname":"","note":"","profile":""}
]